Django==1.8.5
Pillow==3.0.0
argparse==1.2.1
cleanweb==2.0
django-appconf==1.0.1
django-guardian==1.3.1
django-registration==1.0
django-simple-captcha==0.4.6
easy-thumbnails==2.2
html2text==2014.12.29
requests==2.8.1
six==1.10.0
wsgiref==0.1.2
